Imports
=======

A) The Application
==================

  'beans.xml':
  ---------------
  
  1) Create aliases for the airport bean called 'frankfurt' and 'fraport'.
       
     
  'DemoApp':
  ----------
     
  2)  Retrieve the same airport bean with the alias 'frankfurt' and 'fraport'.